-------------------------------------------------------------------------------
Test set: com.google.protobuf.MessageTest
-------------------------------------------------------------------------------
Tests run: 17, Failures: 0, Errors: 0, Skipped: 0, Time elapsed: 0.019 sec
